<?xml version="1.0" standalone="no"?>
<!DOCTYPE svg PUBLIC "-//W3C//DTD SVG 20010904//EN"
 "http://www.w3.org/TR/2001/REC-SVG-20010904/DTD/svg10.dtd">
<svg version="1.0" xmlns="http://www.w3.org/2000/svg"
 width="3508.000000pt" height="2481.000000pt" viewBox="0 0 3508.000000 2481.000000"
 preserveAspectRatio="xMidYMid meet">
<metadata>
Created by potrace 1.16, written by Peter Selinger 2001-2019
</metadata>
<g transform="translate(0.000000,2481.000000) scale(0.100000,-0.100000)"
fill="#000000" stroke="none">
<path d="M13742 13906 c-179 -58 -252 -261 -152 -419 57 -90 150 -134 263
-125 100 8 177 60 225 152 21 42 26 65 26 126 0 64 -4 83 -29 128 -32 59 -67
92 -129 124 -51 26 -146 33 -204 14z"/>
<path d="M8510 12560 l0 -1300 220 0 220 0 0 550 0 550 610 0 610 0 0 200 0
200 -610 0 -610 0 0 355 0 355 715 0 715 0 0 195 0 195 -935 0 -935 0 0 -1300z"/>
<path d="M10630 12560 l0 -1300 215 0 215 0 0 1300 0 1300 -215 0 -215 0 0
-1300z"/>
<path d="M15385 13169 c-146 -21 -288 -83 -401 -173 l-69 -55 -3 89 -3 90
-219 0 -220 0 0 -930 0 -930 220 0 220 0 0 574 c0 535 1 578 19 635 64 207
251 331 496 331 252 0 442 -136 500 -355 13 -50 15 -149 15 -622 l0 -563 215
0 216 0 -3 623 c-4 610 -4 623 -26 695 -50 163 -117 276 -228 383 -184 176
-442 249 -729 208z"/>
<path d="M17398 13165 c-361 -68 -647 -342 -746 -715 -21 -81 -25 -118 -26
-255 0 -136 3 -173 22 -247 103 -392 379 -657 759 -729 97 -18 321 -7 408 21
125 39 283 140 348 222 l26 33 0 -150 c1 -182 -14 -260 -70 -373 -93 -189
-280 -302 -499 -302 -201 0 -390 105 -481 265 -17 30 -35 55 -39 55 -9 0 -306
-203 -328 -224 -31 -30 152 -233 293 -324 216 -141 510 -193 774 -137 387 82
683 379 760 762 20 98 21 132 21 1077 l0 976 -215 0 -215 0 0 -116 0 -116 -58
59 c-97 98 -224 173 -357 209 -84 22 -281 27 -377 9z m367 -390 c99 -25 183
-72 250 -140 202 -202 232 -561 68 -808 -119 -180 -348 -268 -574 -222 -210
42 -359 175 -425 379 -23 68 -27 100 -28 201 0 126 18 215 66 310 70 138 210
247 367 284 60 15 213 12 276 -4z"/>
<path d="M11264 13088 c8 -18 201 -433 431 -922 289 -617 415 -896 411 -910
-4 -12 -100 -221 -215 -466 l-209 -445 216 -3 c119 -1 219 1 222 5 4 5 296
627 650 1383 353 756 644 1378 647 1383 2 4 -95 6 -217 5 l-221 -3 -320 -684
c-176 -377 -321 -686 -322 -687 -1 -2 -32 61 -69 139 -36 78 -181 388 -323
690 l-257 547 -219 0 -219 0 14 -32z"/>
<path d="M13610 12190 l0 -930 215 0 215 0 0 930 0 930 -215 0 -215 0 0 -930z"/>
<path d="M17935 9456 c-56 -26 -116 -87 -141 -143 -27 -61 -23 -167 9 -228 52
-103 143 -158 258 -158 156 0 273 119 273 278 0 114 -58 206 -160 254 -63 30
-172 29 -239 -3z"/>
<path d="M8510 8130 l0 -1300 220 0 220 0 0 425 0 425 350 2 c193 1 366 2 386
3 l37 0 260 -427 261 -428 234 0 c189 0 233 3 229 13 -3 7 -132 220 -287 473
-155 252 -284 462 -286 466 -3 4 24 22 58 39 211 106 357 283 414 504 28 106
25 361 -4 469 -103 377 -424 585 -964 626 -73 5 -357 10 -630 10 l-498 0 0
-1300z m1299 871 c171 -44 295 -138 342 -259 28 -71 37 -229 19 -311 -27 -121
-95 -209 -208 -269 -133 -71 -304 -92 -744 -92 l-268 0 0 481 0 481 388 -5
c356 -4 394 -6 471 -26z"/>
<path d="M13190 8130 l0 -1300 215 0 215 0 0 116 0 116 60 -62 c282 -285 766
-305 1120 -44 248 182 390 472 390 797 0 325 -137 615 -380 802 -223 172 -543
235 -801 159 -120 -36 -269 -130 -349 -221 l-40 -46 0 492 0 491 -215 0 -215
0 0 -1300z m1142 211 c258 -66 412 -266 425 -551 9 -196 -46 -351 -166 -470
-78 -77 -142 -113 -247 -140 -384 -99 -716 165 -717 570 -1 123 15 195 65 300
114 238 378 358 640 291z"/>
<path d="M15520 8130 l0 -1300 215 0 215 0 0 111 0 111 74 -69 c89 -83 162
-127 268 -165 236 -83 530 -49 760 88 93 56 234 189 290 275 167 255 216 556
138 854 -90 338 -360 605 -696 686 -122 30 -306 30 -419 0 -128 -33 -235 -93
-331 -184 l-84 -79 0 486 0 486 -215 0 -215 0 0 -1300z m1122 215 c292 -61
474 -341 438 -669 -28 -244 -163 -415 -390 -492 -85 -29 -273 -27 -362 4 -247
86 -389 311 -376 601 18 386 324 634 690 556z"/>
<path d="M18830 8870 l0 -180 -145 0 -145 0 0 -175 0 -175 145 0 145 0 0 -473
c0 -507 6 -595 47 -720 65 -195 216 -335 398 -368 70 -13 215 -5 294 16 79 21
161 56 161 68 0 13 -90 360 -95 365 -1 2 -28 -4 -59 -13 -66 -19 -155 -21
-188 -4 -44 22 -78 63 -98 116 -19 51 -20 78 -20 533 l0 480 145 0 145 0 0
175 0 175 -145 0 -145 0 0 180 0 180 -220 0 -220 0 0 -180z"/>
<path d="M11585 8739 c-421 -56 -752 -392 -815 -828 -17 -116 -8 -313 20 -416
60 -222 195 -421 375 -551 76 -55 221 -121 321 -146 123 -30 325 -30 435 0
135 37 251 104 351 204 l58 58 0 -115 0 -115 215 0 215 0 0 930 0 930 -215 0
-215 0 0 -121 0 -121 -46 51 c-88 98 -237 187 -369 221 -90 23 -237 32 -330
19z m300 -394 c205 -43 363 -199 421 -416 21 -79 24 -252 5 -329 -19 -79 -71
-187 -119 -246 -50 -63 -156 -135 -242 -164 -140 -48 -327 -35 -461 32 -224
112 -343 399 -284 683 66 317 360 507 680 440z"/>
<path d="M17840 7760 l0 -930 215 0 215 0 0 930 0 930 -215 0 -215 0 0 -930z"/>
</g>
</svg>
